{
  "protocol_version" : "0.0.3",
  "configuration" : {
    "version" : "(5.18.1.3) (2018-08/fdb26b0a445)",
    "tlc" : "normal",
    "sigsgev" : "altstack",
    "notifications" : "kqueue",
    "architecture" : "amd64",
    "disabled_features" : "none",
    "smallconfig" : "disabled",
    "bigarrays" : "disabled",
    "softdebug" : "enabled",
    "interpreter" : "enabled",
    "llvm_support" : "0",
    "suspend" : "preemptive"
  },
  "memory" : {
    "Resident Size" : "109142016",
    "Virtual Size" : "4596871168",
    "minor_gc_time" : "124119",
    "major_gc_time" : "0",
    "minor_gc_count" : "1",
    "major_gc_count" : "0",
    "major_gc_time_concurrent" : "0"
 },
  "threads" : [
 {
    "is_managed" : true,
    "offset_free_hash" : "0x55e58dc7b",
    "offset_rich_hash" : "0x55e58dd83",
    "crashed" : false,
    "native_thread_id" : "0x70000894e000",
    "thread_info_addr" : "0x7fea8b23e600",
    "thread_name" : "tid_4b03",
    "ctx" : {
      "IP" : "0x7fff45c04aa5",
      "SP" : "0x70000894c850",
      "BP" : "0x70000894c970"
  },
    "managed_frames" : [
  {
      "native_address" : "unregistered"
   }
,
  {
      "is_managed" : "true",
      "guid" : "118907F5-EB5F-4E53-8F3E-3BDD8361378F",
      "token" : "0x00000",
      "native_offset" : "0x0",
      "filename" : "System.dll",
      "sizeofimage" : "0x27ee00",
      "timestamp" : "0xa6b506f2",
      "il_offset" : "0xffffffff"
   }
,
  {
      "is_managed" : "true",
      "guid" : "118907F5-EB5F-4E53-8F3E-3BDD8361378F",
      "token" : "0x60043f1",
      "native_offset" : "0x0",
      "filename" : "System.dll",
      "sizeofimage" : "0x27ee00",
      "timestamp" : "0xa6b506f2",
      "il_offset" : "0x0003a"
   }
,
  {
      "is_managed" : "true",
      "guid" : "B4D1A667-27F4-4BA8-88B5-4966284FABB4",
      "token" : "0x60033c4",
      "native_offset" : "0x0",
      "filename" : "mscorlib.dll",
      "sizeofimage" : "0x456800",
      "timestamp" : "0x8348bf87",
      "il_offset" : "0x00025"
   }
,
  {
      "is_managed" : "true",
      "guid" : "B4D1A667-27F4-4BA8-88B5-4966284FABB4",
      "token" : "0x6003358",
      "native_offset" : "0x0",
      "filename" : "mscorlib.dll",
      "sizeofimage" : "0x456800",
      "timestamp" : "0x8348bf87",
      "il_offset" : "0x00071"
   }
,
  {
      "is_managed" : "true",
      "guid" : "B4D1A667-27F4-4BA8-88B5-4966284FABB4",
      "token" : "0x6003357",
      "native_offset" : "0x0",
      "filename" : "mscorlib.dll",
      "sizeofimage" : "0x456800",
      "timestamp" : "0x8348bf87",
      "il_offset" : "0x00000"
   }
,
  {
      "is_managed" : "true",
      "guid" : "B4D1A667-27F4-4BA8-88B5-4966284FABB4",
      "token" : "0x6003356",
      "native_offset" : "0x0",
      "filename" : "mscorlib.dll",
      "sizeofimage" : "0x456800",
      "timestamp" : "0x8348bf87",
      "il_offset" : "0x0002b"
   }
,
  {
      "is_managed" : "true",
      "guid" : "B4D1A667-27F4-4BA8-88B5-4966284FABB4",
      "token" : "0x60033c5",
      "native_offset" : "0x0",
      "filename" : "mscorlib.dll",
      "sizeofimage" : "0x456800",
      "timestamp" : "0x8348bf87",
      "il_offset" : "0x0000f"
   }
,
  {
      "is_managed" : "true",
      "guid" : "B4D1A667-27F4-4BA8-88B5-4966284FABB4",
      "token" : "0x00000",
      "native_offset" : "0x0",
      "filename" : "mscorlib.dll",
      "sizeofimage" : "0x456800",
      "timestamp" : "0x8348bf87",
      "il_offset" : "0xffffffff"
   }

  ],
  "unmanaged_frames" : [
 {
    "native_address" : "unregistered"
  }
,
 {
    "native_address" : "unregistered"
  }
,
 {
    "native_address" : "unregistered"
  }
,
 {
    "native_address" : "unregistered"
  }
,
 {
    "native_address" : "unregistered"
  }
,
 {
    "native_address" : "unregistered"
  }
,
 {
    "native_address" : "unregistered"
  }
,
 {
    "native_address" : "unregistered"
  }
,
 {
    "native_address" : "unregistered"
  }
,
 {
    "native_address" : "unregistered"
  }
,
 {
    "native_address" : "unregistered"
  }
,
 {
    "native_address" : "unregistered"
  }
,
 {
    "native_address" : "unregistered"
  }
,
 {
    "native_address" : "unregistered"
  }

 ]
},
{
  "is_managed" : false,
  "offset_free_hash" : "0x0",
  "offset_rich_hash" : "0x0",
  "crashed" : false,
  "native_thread_id" : "0x70000874b000",
  "thread_info_addr" : "0x7fea8c0c2200",
  "thread_name" : "Thread Pool Worker",
  "ctx" : {
    "IP" : "0x7fff7211127e",
    "SP" : "0x70000874ad98",
    "BP" : "0x70000874ae50"
 },
  "unmanaged_frames" : [
 {
    "native_address" : "unregistered"
  }
,
 {
    "native_address" : "unregistered"
  }
,
 {
    "native_address" : "unregistered"
  }
,
 {
    "native_address" : "unregistered"
  }
,
 {
    "native_address" : "unregistered"
  }
,
 {
    "native_address" : "unregistered"
  }
,
 {
    "native_address" : "unregistered"
  }
,
 {
    "native_address" : "unregistered"
  }
,
 {
    "native_address" : "unregistered"
  }

 ]
},
{
  "is_managed" : false,
  "offset_free_hash" : "0x0",
  "offset_rich_hash" : "0x0",
  "crashed" : false,
  "native_thread_id" : "0x700008548000",
  "thread_info_addr" : "0x7fea8b9a0000",
  "thread_name" : "Thread Pool Worker",
  "ctx" : {
    "IP" : "0x7fff7211127e",
    "SP" : "0x700008547d98",
    "BP" : "0x700008547e50"
 },
  "unmanaged_frames" : [
 {
    "native_address" : "unregistered"
  }
,
 {
    "native_address" : "unregistered"
  }
,
 {
    "native_address" : "unregistered"
  }
,
 {
    "native_address" : "unregistered"
  }
,
 {
    "native_address" : "unregistered"
  }
,
 {
    "native_address" : "unregistered"
  }
,
 {
    "native_address" : "unregistered"
  }
,
 {
    "native_address" : "unregistered"
  }
,
 {
    "native_address" : "unregistered"
  }

 ]
},
{
  "is_managed" : false,
  "offset_free_hash" : "0x0",
  "offset_rich_hash" : "0x0",
  "crashed" : false,
  "native_thread_id" : "0x700008345000",
  "thread_info_addr" : "0x7fea8b1ee400",
  "thread_name" : "Thread Pool Worker",
  "ctx" : {
    "IP" : "0x7fff7211127e",
    "SP" : "0x700008344d98",
    "BP" : "0x700008344e50"
 },
  "unmanaged_frames" : [
 {
    "native_address" : "unregistered"
  }
,
 {
    "native_address" : "unregistered"
  }
,
 {
    "native_address" : "unregistered"
  }
,
 {
    "native_address" : "unregistered"
  }
,
 {
    "native_address" : "unregistered"
  }
,
 {
    "native_address" : "unregistered"
  }
,
 {
    "native_address" : "unregistered"
  }
,
 {
    "native_address" : "unregistered"
  }
,
 {
    "native_address" : "unregistered"
  }

 ]
},
{
  "is_managed" : true,
  "offset_free_hash" : "0xd0d9dfc28",
  "offset_rich_hash" : "0xd0d9e0207",
  "crashed" : false,
  "native_thread_id" : "0x70000935d000",
  "thread_info_addr" : "0x7fea8a9a4000",
  "thread_name" : "Thread Pool Worker",
  "ctx" : {
    "IP" : "0x7fff7211486a",
    "SP" : "0x70000935b5a8",
    "BP" : "0x70000935b630"
 },
  "managed_frames" : [
 {
    "native_address" : "unregistered"
  }
,
 {
    "is_managed" : "true",
    "guid" : "B4D1A667-27F4-4BA8-88B5-4966284FABB4",
    "token" : "0x00000",
    "native_offset" : "0x0",
    "filename" : "mscorlib.dll",
    "sizeofimage" : "0x456800",
    "timestamp" : "0x8348bf87",
    "il_offset" : "0xffffffff"
  }
,
 {
    "is_managed" : "true",
    "guid" : "B4D1A667-27F4-4BA8-88B5-4966284FABB4",
    "token" : "0x60034fa",
    "native_offset" : "0x0",
    "filename" : "mscorlib.dll",
    "sizeofimage" : "0x456800",
    "timestamp" : "0x8348bf87",
    "il_offset" : "0x00044"
  }
,
 {
    "is_managed" : "true",
    "guid" : "B4D1A667-27F4-4BA8-88B5-4966284FABB4",
    "token" : "0x60034e6",
    "native_offset" : "0x0",
    "filename" : "mscorlib.dll",
    "sizeofimage" : "0x456800",
    "timestamp" : "0x8348bf87",
    "il_offset" : "0x00014"
  }
,
 {
    "is_managed" : "true",
    "guid" : "B4D1A667-27F4-4BA8-88B5-4966284FABB4",
    "token" : "0x60034e5",
    "native_offset" : "0x0",
    "filename" : "mscorlib.dll",
    "sizeofimage" : "0x456800",
    "timestamp" : "0x8348bf87",
    "il_offset" : "0x00000"
  }
,
 {
    "is_managed" : "true",
    "guid" : "B4D1A667-27F4-4BA8-88B5-4966284FABB4",
    "token" : "0x60034e0",
    "native_offset" : "0x0",
    "filename" : "mscorlib.dll",
    "sizeofimage" : "0x456800",
    "timestamp" : "0x8348bf87",
    "il_offset" : "0x00019"
  }
,
 {
    "is_managed" : "true",
    "guid" : "B4D1A667-27F4-4BA8-88B5-4966284FABB4",
    "token" : "0x60034e2",
    "native_offset" : "0x0",
    "filename" : "mscorlib.dll",
    "sizeofimage" : "0x456800",
    "timestamp" : "0x8348bf87",
    "il_offset" : "0x00000"
  }
,
 {
    "is_managed" : "true",
    "guid" : "CAE9D09B-4C75-4647-A304-CF9C64CA35A7",
    "token" : "0x60004ee",
    "native_offset" : "0x0",
    "filename" : "System.Web.dll",
    "sizeofimage" : "0x2e2800",
    "timestamp" : "0x9ec5921f",
    "il_offset" : "0x00021"
  }
,
 {
    "is_managed" : "true",
    "guid" : "CAE9D09B-4C75-4647-A304-CF9C64CA35A7",
    "token" : "0x60008c6",
    "native_offset" : "0x0",
    "filename" : "System.Web.dll",
    "sizeofimage" : "0x2e2800",
    "timestamp" : "0x9ec5921f",
    "il_offset" : "0x000aa"
  }
,
 {
    "is_managed" : "true",
    "guid" : "CAE9D09B-4C75-4647-A304-CF9C64CA35A7",
    "token" : "0x60008c5",
    "native_offset" : "0x0",
    "filename" : "System.Web.dll",
    "sizeofimage" : "0x2e2800",
    "timestamp" : "0x9ec5921f",
    "il_offset" : "0x00025"
  }
,
 {
    "is_managed" : "true",
    "guid" : "CAE9D09B-4C75-4647-A304-CF9C64CA35A7",
    "token" : "0x60008c8",
    "native_offset" : "0x0",
    "filename" : "System.Web.dll",
    "sizeofimage" : "0x2e2800",
    "timestamp" : "0x9ec5921f",
    "il_offset" : "0x00025"
  }
,
 {
    "is_managed" : "true",
    "guid" : "BBD0A9D3-A0D3-4909-9BE0-0550C37EBFB4",
    "token" : "0x60000bb",
    "native_offset" : "0x0",
    "filename" : "Mono.WebServer2.dll",
    "sizeofimage" : "0x16a00",
    "timestamp" : "0x0",
    "il_offset" : "0x00012"
  }
,
 {
    "is_managed" : "true",
    "guid" : "BBD0A9D3-A0D3-4909-9BE0-0550C37EBFB4",
    "token" : "0x600002f",
    "native_offset" : "0x0",
    "filename" : "Mono.WebServer2.dll",
    "sizeofimage" : "0x16a00",
    "timestamp" : "0x0",
    "il_offset" : "0x00038"
  }
,
 {
    "is_managed" : "true",
    "guid" : "645A2306-7666-447E-988A-50155FE857F4",
    "token" : "0x600004f",
    "native_offset" : "0x0",
    "filename" : "xsp4.exe",
    "sizeofimage" : "0xa600",
    "timestamp" : "0x0",
    "il_offset" : "0x00170"
  }
,
 {
    "is_managed" : "true",
    "guid" : "645A2306-7666-447E-988A-50155FE857F4",
    "token" : "0x00000",
    "native_offset" : "0x0",
    "filename" : "xsp4.exe",
    "sizeofimage" : "0xa600",
    "timestamp" : "0x0",
    "il_offset" : "0x00044"
  }
,
 {
    "is_managed" : "true",
    "guid" : "645A2306-7666-447E-988A-50155FE857F4",
    "token" : "0x6000065",
    "native_offset" : "0x0",
    "filename" : "xsp4.exe",
    "sizeofimage" : "0xa600",
    "timestamp" : "0x0",
    "il_offset" : "0x0014a"
  }
,
 {
    "is_managed" : "true",
    "guid" : "B4D1A667-27F4-4BA8-88B5-4966284FABB4",
    "token" : "0x600348e",
    "native_offset" : "0x0",
    "filename" : "mscorlib.dll",
    "sizeofimage" : "0x456800",
    "timestamp" : "0x8348bf87",
    "il_offset" : "0x0000d"
  }
,
 {
    "is_managed" : "true",
    "guid" : "B4D1A667-27F4-4BA8-88B5-4966284FABB4",
    "token" : "0x6003358",
    "native_offset" : "0x0",
    "filename" : "mscorlib.dll",
    "sizeofimage" : "0x456800",
    "timestamp" : "0x8348bf87",
    "il_offset" : "0x00071"
  }
,
 {
    "is_managed" : "true",
    "guid" : "B4D1A667-27F4-4BA8-88B5-4966284FABB4",
    "token" : "0x6003357",
    "native_offset" : "0x0",
    "filename" : "mscorlib.dll",
    "sizeofimage" : "0x456800",
    "timestamp" : "0x8348bf87",
    "il_offset" : "0x00000"
  }
,
 {
    "is_managed" : "true",
    "guid" : "B4D1A667-27F4-4BA8-88B5-4966284FABB4",
    "token" : "0x600348c",
    "native_offset" : "0x0",
    "filename" : "mscorlib.dll",
    "sizeofimage" : "0x456800",
    "timestamp" : "0x8348bf87",
    "il_offset" : "0x00021"
  }
,
 {
    "is_managed" : "true",
    "guid" : "B4D1A667-27F4-4BA8-88B5-4966284FABB4",
    "token" : "0x6003473",
    "native_offset" : "0x0",
    "filename" : "mscorlib.dll",
    "sizeofimage" : "0x456800",
    "timestamp" : "0x8348bf87",
    "il_offset" : "0x00074"
  }
,
 {
    "is_managed" : "true",
    "guid" : "B4D1A667-27F4-4BA8-88B5-4966284FABB4",
    "token" : "0x6003488",
    "native_offset" : "0x0",
    "filename" : "mscorlib.dll",
    "sizeofimage" : "0x456800",
    "timestamp" : "0x8348bf87",
    "il_offset" : "0x00000"
  }
,
 {
    "is_managed" : "true",
    "guid" : "B4D1A667-27F4-4BA8-88B5-4966284FABB4",
    "token" : "0x00000",
    "native_offset" : "0x0",
    "filename" : "mscorlib.dll",
    "sizeofimage" : "0x456800",
    "timestamp" : "0x8348bf87",
    "il_offset" : "0xffffffff"
  }

 ],
"unmanaged_frames" : [
{
  "native_address" : "unregistered"
 }
,
{
  "native_address" : "unregistered"
 }
,
{
  "native_address" : "unregistered"
 }
,
{
  "native_address" : "unregistered"
 }
,
{
  "native_address" : "unregistered"
 }
,
{
  "native_address" : "unregistered"
 }
,
{
  "native_address" : "unregistered"
 }
,
{
  "native_address" : "unregistered"
 }
,
{
  "native_address" : "unregistered"
 }
,
{
  "native_address" : "unregistered"
 }
,
{
  "native_address" : "unregistered"
 }
,
{
  "native_address" : "unregistered"
 }
,
{
  "native_address" : "unregistered"
 }
,
{
  "native_address" : "unregistered"
 }
,
{
  "native_address" : "unregistered"
 }
,
{
  "native_address" : "unregistered"
 }
,
{
  "native_address" : "unregistered"
 }
,
{
  "native_address" : "unregistered"
 }
,
{
  "native_address" : "unregistered"
 }
,
{
  "native_address" : "unregistered"
 }
,
{
  "native_address" : "unregistered"
 }
,
{
  "native_address" : "unregistered"
 }
,
{
  "native_address" : "unregistered"
 }
,
{
  "native_address" : "unregistered"
 }
,
{
  "native_address" : "unregistered"
 }
,
{
  "native_address" : "unregistered"
 }
,
{
  "native_address" : "unregistered"
 }
,
{
  "native_address" : "unregistered"
 }

]
},
{
"is_managed" : false,
"offset_free_hash" : "0x0",
"offset_rich_hash" : "0x0",
"crashed" : false,
"native_thread_id" : "0x700007f3f000",
"thread_info_addr" : "0x7fea8c033e00",
"thread_name" : "Thread Pool I/O Selector",
"ctx" : {
  "IP" : "0x7fff7211861a",
  "SP" : "0x700007f3eb68",
  "BP" : "0x700007f3ed20"
},
"unmanaged_frames" : [
{
  "native_address" : "unregistered"
 }
,
{
  "native_address" : "unregistered"
 }
,
{
  "native_address" : "unregistered"
 }
,
{
  "native_address" : "unregistered"
 }
,
{
  "native_address" : "unregistered"
 }
,
{
  "native_address" : "unregistered"
 }
,
{
  "native_address" : "unregistered"
 }
,
{
  "native_address" : "unregistered"
 }
,
{
  "native_address" : "unregistered"
 }
,
{
  "native_address" : "unregistered"
 }
,
{
  "native_address" : "unregistered"
 }

]
},
{
"is_managed" : false,
"offset_free_hash" : "0x0",
"offset_rich_hash" : "0x0",
"crashed" : false,
"native_thread_id" : "0x70000915a000",
"thread_info_addr" : "0x7fea8d0ce800",
"thread_name" : "tid_9007",
"ctx" : {
  "IP" : "0x7fff7211486a",
  "SP" : "0x700009159cc8",
  "BP" : "0x700009159d50"
},
"unmanaged_frames" : [
{
  "native_address" : "unregistered"
 }
,
{
  "native_address" : "unregistered"
 }
,
{
  "native_address" : "unregistered"
 }
,
{
  "native_address" : "unregistered"
 }
,
{
  "native_address" : "unregistered"
 }
,
{
  "native_address" : "unregistered"
 }
,
{
  "native_address" : "unregistered"
 }
,
{
  "native_address" : "unregistered"
 }
,
{
  "native_address" : "unregistered"
 }
,
{
  "native_address" : "unregistered"
 }
,
{
  "native_address" : "unregistered"
 }
,
{
  "native_address" : "unregistered"
 }

]
},
{
"is_managed" : true,
"offset_free_hash" : "0x641ac1401",
"offset_rich_hash" : "0x641ac1518",
"crashed" : false,
"native_thread_id" : "0x700007d3c000",
"thread_info_addr" : "0x7fea8a83f400",
"thread_name" : "tid_2f03",
"ctx" : {
  "IP" : "0x7fff7211486a",
  "SP" : "0x700007d3b648",
  "BP" : "0x700007d3b6d0"
},
"managed_frames" : [
{
  "native_address" : "unregistered"
 }
,
{
  "is_managed" : "true",
  "guid" : "B4D1A667-27F4-4BA8-88B5-4966284FABB4",
  "token" : "0x00000",
  "native_offset" : "0x0",
  "filename" : "mscorlib.dll",
  "sizeofimage" : "0x456800",
  "timestamp" : "0x8348bf87",
  "il_offset" : "0xffffffff"
 }
,
{
  "is_managed" : "true",
  "guid" : "B4D1A667-27F4-4BA8-88B5-4966284FABB4",
  "token" : "0x60033ea",
  "native_offset" : "0x0",
  "filename" : "mscorlib.dll",
  "sizeofimage" : "0x456800",
  "timestamp" : "0x8348bf87",
  "il_offset" : "0x00019"
 }
,
{
  "is_managed" : "true",
  "guid" : "BBD0A9D3-A0D3-4909-9BE0-0550C37EBFB4",
  "token" : "0x600001a",
  "native_offset" : "0x0",
  "filename" : "Mono.WebServer2.dll",
  "sizeofimage" : "0x16a00",
  "timestamp" : "0x0",
  "il_offset" : "0x00048"
 }
,
{
  "is_managed" : "true",
  "guid" : "B4D1A667-27F4-4BA8-88B5-4966284FABB4",
  "token" : "0x60033c4",
  "native_offset" : "0x0",
  "filename" : "mscorlib.dll",
  "sizeofimage" : "0x456800",
  "timestamp" : "0x8348bf87",
  "il_offset" : "0x00014"
 }
,
{
  "is_managed" : "true",
  "guid" : "B4D1A667-27F4-4BA8-88B5-4966284FABB4",
  "token" : "0x6003358",
  "native_offset" : "0x0",
  "filename" : "mscorlib.dll",
  "sizeofimage" : "0x456800",
  "timestamp" : "0x8348bf87",
  "il_offset" : "0x00071"
 }
,
{
  "is_managed" : "true",
  "guid" : "B4D1A667-27F4-4BA8-88B5-4966284FABB4",
  "token" : "0x6003357",
  "native_offset" : "0x0",
  "filename" : "mscorlib.dll",
  "sizeofimage" : "0x456800",
  "timestamp" : "0x8348bf87",
  "il_offset" : "0x00000"
 }
,
{
  "is_managed" : "true",
  "guid" : "B4D1A667-27F4-4BA8-88B5-4966284FABB4",
  "token" : "0x6003356",
  "native_offset" : "0x0",
  "filename" : "mscorlib.dll",
  "sizeofimage" : "0x456800",
  "timestamp" : "0x8348bf87",
  "il_offset" : "0x0002b"
 }
,
{
  "is_managed" : "true",
  "guid" : "B4D1A667-27F4-4BA8-88B5-4966284FABB4",
  "token" : "0x60033c6",
  "native_offset" : "0x0",
  "filename" : "mscorlib.dll",
  "sizeofimage" : "0x456800",
  "timestamp" : "0x8348bf87",
  "il_offset" : "0x00008"
 }
,
{
  "is_managed" : "true",
  "guid" : "B4D1A667-27F4-4BA8-88B5-4966284FABB4",
  "token" : "0x00000",
  "native_offset" : "0x0",
  "filename" : "mscorlib.dll",
  "sizeofimage" : "0x456800",
  "timestamp" : "0x8348bf87",
  "il_offset" : "0xffffffff"
 }

],
"unmanaged_frames" : [
{
"native_address" : "unregistered"
}
,
{
"native_address" : "unregistered"
}
,
{
"native_address" : "unregistered"
}
,
{
"native_address" : "unregistered"
}
,
{
"native_address" : "unregistered"
}
,
{
"native_address" : "unregistered"
}
,
{
"native_address" : "unregistered"
}
,
{
"native_address" : "unregistered"
}
,
{
"native_address" : "unregistered"
}
,
{
"native_address" : "unregistered"
}
,
{
"native_address" : "unregistered"
}
,
{
"native_address" : "unregistered"
}
,
{
"native_address" : "unregistered"
}
,
{
"native_address" : "unregistered"
}
,
{
"native_address" : "unregistered"
}
,
{
"native_address" : "unregistered"
}
,
{
"native_address" : "unregistered"
}

]
},
{
"is_managed" : false,
"offset_free_hash" : "0x0",
"offset_rich_hash" : "0x0",
"crashed" : false,
"native_thread_id" : "0x111baa5c0",
"thread_info_addr" : "0x7fea8a804400",
"thread_name" : "tid_307",
"ctx" : {
"IP" : "0x7fff7211486a",
"SP" : "0x7ffee91b9a78",
"BP" : "0x7ffee91b9b00"
},
"unmanaged_frames" : [
{
"native_address" : "unregistered"
}
,
{
"native_address" : "unregistered"
}
,
{
"native_address" : "unregistered"
}
,
{
"native_address" : "unregistered"
}
,
{
"native_address" : "unregistered"
}
,
{
"native_address" : "unregistered"
}
,
{
"native_address" : "unregistered"
}
,
{
"native_address" : "unregistered"
}
,
{
"native_address" : "unregistered"
}
,
{
"native_address" : "unregistered"
}
,
{
"native_address" : "unregistered"
}
,
{
"native_address" : "unregistered"
}
,
{
"native_address" : "unregistered"
}

]
},
{
"is_managed" : false,
"offset_free_hash" : "0x0",
"offset_rich_hash" : "0x0",
"crashed" : false,
"native_thread_id" : "0x700007a33000",
"thread_info_addr" : "0x7fea8b00ec00",
"thread_name" : "Debugger agent",
"ctx" : {
"IP" : "0x7fff72114472",
"SP" : "0x700007a32a68",
"BP" : "0x700007a32ac0"
},
"unmanaged_frames" : [
{
"native_address" : "unregistered"
}
,
{
"native_address" : "unregistered"
}
,
{
"native_address" : "unregistered"
}
,
{
"native_address" : "unregistered"
}
,
{
"native_address" : "unregistered"
}
,
{
"native_address" : "unregistered"
}
,
{
"native_address" : "unregistered"
}
,
{
"native_address" : "unregistered"
}
,
{
"native_address" : "unregistered"
}
,
{
"native_address" : "unregistered"
}

]
},
{
"is_managed" : true,
"offset_free_hash" : "0x9123a18d3",
"offset_rich_hash" : "0x9123a1a42",
"crashed" : false,
"native_thread_id" : "0x700008f57000",
"thread_info_addr" : "0x7fea8ab1b200",
"thread_name" : "Timer-Scheduler",
"ctx" : {
"IP" : "0x7fff7211486a",
"SP" : "0x700008f55e98",
"BP" : "0x700008f55f20"
},
"managed_frames" : [
{
"native_address" : "unregistered"
}
,
{
"is_managed" : "true",
"guid" : "B4D1A667-27F4-4BA8-88B5-4966284FABB4",
"token" : "0x00000",
"native_offset" : "0x0",
"filename" : "mscorlib.dll",
"sizeofimage" : "0x456800",
"timestamp" : "0x8348bf87",
"il_offset" : "0xffffffff"
}
,
{
"is_managed" : "true",
"guid" : "B4D1A667-27F4-4BA8-88B5-4966284FABB4",
"token" : "0x60034fa",
"native_offset" : "0x0",
"filename" : "mscorlib.dll",
"sizeofimage" : "0x456800",
"timestamp" : "0x8348bf87",
"il_offset" : "0x00044"
}
,
{
"is_managed" : "true",
"guid" : "B4D1A667-27F4-4BA8-88B5-4966284FABB4",
"token" : "0x60034e6",
"native_offset" : "0x0",
"filename" : "mscorlib.dll",
"sizeofimage" : "0x456800",
"timestamp" : "0x8348bf87",
"il_offset" : "0x00014"
}
,
{
"is_managed" : "true",
"guid" : "B4D1A667-27F4-4BA8-88B5-4966284FABB4",
"token" : "0x60034e5",
"native_offset" : "0x0",
"filename" : "mscorlib.dll",
"sizeofimage" : "0x456800",
"timestamp" : "0x8348bf87",
"il_offset" : "0x00000"
}
,
{
"is_managed" : "true",
"guid" : "B4D1A667-27F4-4BA8-88B5-4966284FABB4",
"token" : "0x60034e0",
"native_offset" : "0x0",
"filename" : "mscorlib.dll",
"sizeofimage" : "0x456800",
"timestamp" : "0x8348bf87",
"il_offset" : "0x00019"
}
,
{
"is_managed" : "true",
"guid" : "B4D1A667-27F4-4BA8-88B5-4966284FABB4",
"token" : "0x60034e3",
"native_offset" : "0x0",
"filename" : "mscorlib.dll",
"sizeofimage" : "0x456800",
"timestamp" : "0x8348bf87",
"il_offset" : "0x00000"
}
,
{
"is_managed" : "true",
"guid" : "B4D1A667-27F4-4BA8-88B5-4966284FABB4",
"token" : "0x600359b",
"native_offset" : "0x0",
"filename" : "mscorlib.dll",
"sizeofimage" : "0x456800",
"timestamp" : "0x8348bf87",
"il_offset" : "0x00048"
}
,
{
"is_managed" : "true",
"guid" : "B4D1A667-27F4-4BA8-88B5-4966284FABB4",
"token" : "0x60033c4",
"native_offset" : "0x0",
"filename" : "mscorlib.dll",
"sizeofimage" : "0x456800",
"timestamp" : "0x8348bf87",
"il_offset" : "0x00014"
}
,
{
"is_managed" : "true",
"guid" : "B4D1A667-27F4-4BA8-88B5-4966284FABB4",
"token" : "0x6003358",
"native_offset" : "0x0",
"filename" : "mscorlib.dll",
"sizeofimage" : "0x456800",
"timestamp" : "0x8348bf87",
"il_offset" : "0x00071"
}
,
{
"is_managed" : "true",
"guid" : "B4D1A667-27F4-4BA8-88B5-4966284FABB4",
"token" : "0x6003357",
"native_offset" : "0x0",
"filename" : "mscorlib.dll",
"sizeofimage" : "0x456800",
"timestamp" : "0x8348bf87",
"il_offset" : "0x00000"
}
,
{
"is_managed" : "true",
"guid" : "B4D1A667-27F4-4BA8-88B5-4966284FABB4",
"token" : "0x6003356",
"native_offset" : "0x0",
"filename" : "mscorlib.dll",
"sizeofimage" : "0x456800",
"timestamp" : "0x8348bf87",
"il_offset" : "0x0002b"
}
,
{
"is_managed" : "true",
"guid" : "B4D1A667-27F4-4BA8-88B5-4966284FABB4",
"token" : "0x60033c6",
"native_offset" : "0x0",
"filename" : "mscorlib.dll",
"sizeofimage" : "0x456800",
"timestamp" : "0x8348bf87",
"il_offset" : "0x00008"
}
,
{
"is_managed" : "true",
"guid" : "B4D1A667-27F4-4BA8-88B5-4966284FABB4",
"token" : "0x00000",
"native_offset" : "0x0",
"filename" : "mscorlib.dll",
"sizeofimage" : "0x456800",
"timestamp" : "0x8348bf87",
"il_offset" : "0xffffffff"
}

],
"unmanaged_frames" : [
{
"native_address" : "unregistered"
}
,
{
"native_address" : "unregistered"
}
,
{
"native_address" : "unregistered"
}
,
{
"native_address" : "unregistered"
}
,
{
"native_address" : "unregistered"
}
,
{
"native_address" : "unregistered"
}
,
{
"native_address" : "unregistered"
}
,
{
"native_address" : "unregistered"
}
,
{
"native_address" : "unregistered"
}
,
{
"native_address" : "unregistered"
}
,
{
"native_address" : "unregistered"
}
,
{
"native_address" : "unregistered"
}
,
{
"native_address" : "unregistered"
}
,
{
"native_address" : "unregistered"
}
,
{
"native_address" : "unregistered"
}
,
{
"native_address" : "unregistered"
}
,
{
"native_address" : "unregistered"
}
,
{
"native_address" : "unregistered"
}
,
{
"native_address" : "unregistered"
}
,
{
"native_address" : "unregistered"
}
,
{
"native_address" : "unregistered"
}

]
},
{
"is_managed" : false,
"offset_free_hash" : "0x0",
"offset_rich_hash" : "0x0",
"crashed" : false,
"native_thread_id" : "0x700007830000",
"thread_info_addr" : "0x7fea8c002000",
"thread_name" : "Finalizer",
"ctx" : {
"IP" : "0x7fff72111266",
"SP" : "0x70000782fda8",
"BP" : "0x70000782fe50"
},
"unmanaged_frames" : [
{
"native_address" : "unregistered"
}
,
{
"native_address" : "unregistered"
}
,
{
"native_address" : "unregistered"
}
,
{
"native_address" : "unregistered"
}
,
{
"native_address" : "unregistered"
}
,
{
"native_address" : "unregistered"
}
,
{
"native_address" : "unregistered"
}
,
{
"native_address" : "unregistered"
}
,
{
"native_address" : "unregistered"
}

]
},
{
"is_managed" : true,
"offset_free_hash" : "0x2c239136d",
"offset_rich_hash" : "0x2c239136b",
"crashed" : true,
"native_thread_id" : "0x700008d54000",
"thread_info_addr" : "0x7fea8b26ec00",
"thread_name" : "Thread Pool Worker",
"ctx" : {
"IP" : "0x7fff721172c6",
"SP" : "0x700008d51338",
"BP" : "0x700008d51370"
},
"managed_frames" : [
{
"native_address" : "unregistered"
}
,
{
"is_managed" : "true",
"guid" : "B4D1A667-27F4-4BA8-88B5-4966284FABB4",
"token" : "0x6004d51",
"native_offset" : "0x0",
"filename" : "mscorlib.dll",
"sizeofimage" : "0x456800",
"timestamp" : "0x8348bf87",
"il_offset" : "0x00000"
}
,
{
"is_managed" : "true",
"guid" : "B4D1A667-27F4-4BA8-88B5-4966284FABB4",
"token" : "0x00000",
"native_offset" : "0x0",
"filename" : "mscorlib.dll",
"sizeofimage" : "0x456800",
"timestamp" : "0x8348bf87",
"il_offset" : "0xffffffff"
}
,
{
"native_address" : "unregistered"
}
,
{
"is_managed" : "true",
"guid" : "B4D1A667-27F4-4BA8-88B5-4966284FABB4",
"token" : "0x6003488",
"native_offset" : "0x0",
"filename" : "mscorlib.dll",
"sizeofimage" : "0x456800",
"timestamp" : "0x8348bf87",
"il_offset" : "0x00000"
}
,
{
"is_managed" : "true",
"guid" : "B4D1A667-27F4-4BA8-88B5-4966284FABB4",
"token" : "0x00000",
"native_offset" : "0x0",
"filename" : "mscorlib.dll",
"sizeofimage" : "0x456800",
"timestamp" : "0x8348bf87",
"il_offset" : "0xffffffff"
}

],
"unmanaged_frames" : [
{
"native_address" : "unregistered"
}
,
{
"native_address" : "unregistered"
}
,
{
"native_address" : "unregistered"
}
,
{
"native_address" : "unregistered"
}
,
{
"native_address" : "unregistered"
}
,
{
"native_address" : "unregistered"
}
,
{
"native_address" : "unregistered"
}
,
{
"native_address" : "unregistered"
}
,
{
"native_address" : "unregistered"
}
,
{
"native_address" : "unregistered"
}
,
{
"native_address" : "unregistered"
}
,
{
"native_address" : "unregistered"
}
,
{
"native_address" : "unregistered"
}
,
{
"native_address" : "unregistered"
}
,
{
"native_address" : "unregistered"
}
,
{
"native_address" : "unregistered"
}
,
{
"native_address" : "unregistered"
}
,
{
"native_address" : "unregistered"
}
,
{
"native_address" : "unregistered"
}
,
{
"native_address" : "unregistered"
}
,
{
"native_address" : "unregistered"
}
,
{
"native_address" : "unregistered"
}
,
{
"native_address" : "unregistered"
}
,
{
"native_address" : "unregistered"
}
,
{
"native_address" : "unregistered"
}
,
{
"native_address" : "unregistered"
}
,
{
"native_address" : "unregistered"
}
,
{
"native_address" : "unregistered"
}
,
{
"native_address" : "unregistered"
}
,
{
"native_address" : "unregistered"
}
,
{
"native_address" : "unregistered"
}
,
{
"native_address" : "unregistered"
}
,
{
"native_address" : "unregistered"
}
,
{
"native_address" : "unregistered"
}
,
{
"native_address" : "unregistered"
}
,
{
"native_address" : "unregistered"
}
,
{
"native_address" : "unregistered"
}
,
{
"native_address" : "unregistered"
}

]
},
{
"is_managed" : false,
"offset_free_hash" : "0x0",
"offset_rich_hash" : "0x0",
"crashed" : false,
"native_thread_id" : "0x700008b51000",
"thread_info_addr" : "0x7fea8b26a200",
"thread_name" : "Thread Pool Worker",
"ctx" : {
"IP" : "0x7fff7211127e",
"SP" : "0x700008b50d98",
"BP" : "0x700008b50e50"
},
"unmanaged_frames" : [
{
"native_address" : "unregistered"
}
,
{
"native_address" : "unregistered"
}
,
{
"native_address" : "unregistered"
}
,
{
"native_address" : "unregistered"
}
,
{
"native_address" : "unregistered"
}
,
{
"native_address" : "unregistered"
}
,
{
"native_address" : "unregistered"
}
,
{
"native_address" : "unregistered"
}
,
{
"native_address" : "unregistered"
}

]
}
]
}